﻿{
  /* TODO: Put your chatbot identifier and accessKey bellow. */
  "identifier": "calcbots",
  "accessKey": "dzA1NjgxUUlweGNRcTB4d2l4THk=",
  "messageReceivers": [
    {
      "type": "PlainTextMessageReceiver",
      "mediaType": "text/plain",
      "response": {
        "mediaType": "text/plain",
        "plainContent": "Olá, seja bem-vindo ao serviço de ajuda do Messaging Hub."
      }
    }
    
  ],
  "settings": {
    "key1": "value1",
    "key2": 2

  },
  "settingsType": "Settings",
  "startupType": "Startup"
}